[
  {
    "title": "All Day Event",
    "start": "2018-03-20"
  },
  {
    "title": "Long Event",
    "start": "2017-10-20",
    "end": "2017-10-25"
  },
  {
    "title": "Repeating Event",
    "start": "2017-10-26T16:00:00"
  },
  {
    "title": "Repeating Event",
    "start": "2016-01-16T16:00:00"
  },
  {
    "title": "Conference",
    "start": "2016-01-11",
    "end": "2016-01-13"
  }
]
